# MeV/fm^3 MeV/fm^3
# pressure      energy_density
6.0897414914787166e-15	5.855074916173943e-9
6.722493913821171e-15	6.208272220184799e-9
7.426401757845741e-15	6.582775154160472e-9
8.209857061939734e-15	6.979868871749441e-9
9.082267642629926e-15	7.40091604094555e-9
1.0054181699508956e-14	7.847361518637622e-9
1.1137427807857184e-14	8.320737306967851e-9
1.23452722054788e-14	8.822667808476455e-9
1.3692595516867084e-14	9.354875398031538e-9
1.5196091323793696e-14	9.919186330625637e-9
1.6874489290431822e-14	1.0517537005268106e-8
1.8748805887277806e-14	1.1151980606418733e-8
2.0842626136043913e-14	1.1824694145697294e-8
2.318242022254519e-14	1.2537985927970153e-8
2.5797899302228258e-14	1.3294303467363351e-8
2.8722415359946026e-14	1.4096241880286424e-8
3.1875915914701034e-14	1.4946500124444457e-8
3.508518212750316e-14	1.5847899277868746e-8
3.864792545867422e-14	1.6803645109339346e-8
4.2605340324399894e-14	1.7817012365044466e-8
4.7003575904526205e-14	1.889147288062359e-8
5.189434199331049e-14	2.0030707413608357e-8
5.733558954879629e-14	2.123861818258216e-8
6.339227518866528e-14	2.2519342154812663e-8
7.013722002762592e-14	2.3877265126521203e-8
7.765207454105562e-14	2.5317036642494223e-8
8.602840258942098e-14	2.6843585804421746e-8
9.536889936785115e-14	2.8462138020171585e-8
1.057887598775042e-13	3.017823274918334e-8
1.1741721657519167e-13	3.199774230229887e-8
1.303992671733856e-13	3.392689175764365e-8
1.4489761616601339e-13	3.5972280057642355e-8
1.599195919012509e-13	3.8141750141311696e-8
1.756400965051524e-13	4.04427387059701e-8
1.9306378645846841e-13	4.288254695151672e-8
2.123872246149646e-13	4.546955083534957e-8
2.3383049193642333e-13	4.821263180691756e-8
2.5764005547356764e-13	5.112120732829679e-8
2.840919894819846e-13	5.4205263239269816e-8
3.134955933631112e-13	5.74753880785949e-8
3.461974555384089e-13	6.094280947994225e-8
3.825860184555689e-13	6.461943276817932e-8
4.230967067725485e-13	6.851788188933508e-8
4.682176884623669e-13	7.265154281569007e-8
5.184963472344952e-13	7.703460957605477e-8
5.745465543961305e-13	8.168213307044528e-8
6.370568392121018e-13	8.66100728380735e-8
7.067995691157426e-13	9.183535195787863e-8
7.755879802639633e-13	9.737492712315004e-8
8.499343561706156e-13	1.032484313688614e-7
9.321909395735976e-13	1.0947617970319527e-7
1.0232606324695512e-12	1.1607953282994164e-7
1.1241537160543898e-12	1.2308113892548767e-7
1.2360009046398674e-12	1.3050501116834963e-7
1.3600680043965584e-12	1.383766099286705e-7
1.4977723753208039e-12	1.4672292989668744e-7
1.6507014194174423e-12	1.5557259244574033e-7
1.8206333457372738e-12	1.6495594354292818e-7
2.009560493987511e-12	1.7490515753907853e-7
2.219715533371133e-12	1.854543471893288e-7
2.453600892586466e-12	1.9663968027639384e-7
2.7140218210702616e-12	2.0849950323056654e-7
3.0041235312018803e-12	2.2107447216374296e-7
3.32166193923804e-12	2.344087122374131e-7
3.6281441910674195e-12	2.485554300170821e-7
3.966302349810263e-12	2.635563060634252e-7
4.339686295590841e-12	2.794629622435322e-7
4.752263766636836e-12	2.9633014632970504e-7
5.208470885420024e-12	3.142159220405381e-7
5.71326887960786e-12	3.3318187072916977e-7
6.272207762639032e-12	3.5329330544406955e-7
6.8914978334836785e-12	3.746194981343039e-7
7.578089961653996e-12	3.9723392082097805e-7
8.33976574325318e-12	4.2121450160968523e-7
9.185238748432354e-12	4.466438964755967e-7
1.012426823191101e-11	4.7360977781353656e-7
1.1167786848281967e-11	5.022051408103326e-7
1.2328044104999429e-11	5.325286287662251e-7
1.3618767500860615e-11	5.646848785665085e-7
1.496262895777786e-11	5.987687647795699e-7
1.629804532913399e-11	6.348843263027702e-7
1.7767812223691656e-11	6.731779434813936e-7
1.9386719981480053e-11	7.137809325959621e-7
2.117128211418286e-11	7.568325223646733e-7
2.3139942531674694e-11	8.024803301214126e-7
2.5313308105460324e-11	8.508808665778923e-7
2.7714409692817306e-11	9.022000708767099e-7
3.036899513216805e-11	9.566138777428986e-7
3.3305858154907256e-11	1.0143088186481553e-6
3.655720764753914e-11	1.075482659014614e-6
4.015908224723625e-11	1.1403450736042475e-6
4.415181587134394e-11	1.2091183623659279e-6
4.85805604753885e-11	1.2820382091453466e-6
5.349587311431647e-11	1.3593544858036723e-6
5.895437525869781e-11	1.4413321044394679e-6
6.431960571259887e-11	1.5282772384998463e-6
6.985982887515823e-11	1.6204805104426486e-6
7.594060295109084e-11	1.718247248115417e-6
8.262018191089944e-11	1.821913233620042e-6
8.996352128822892e-11	1.9318345259932013e-6
9.804307860554635e-11	2.0483886870222193e-6
1.0693971132255827e-10	2.1719760813335176e-6
1.1674368430998447e-10	2.3030212552746317e-6
1.275558003359504e-10	2.441974399388524e-6
1.3948866872099803e-10	2.589312899574065e-6
1.5266812919339617e-10	2.7455429823402282e-6
1.6723485008475752e-10	2.911201459894875e-6
1.8334612237581854e-10	3.086857581163398e-6
2.011778737660837e-10	3.2731149952092103e-6
2.2092692993539707e-10	3.4706138339286843e-6
2.428135535314039e-10	3.6800329213191436e-6
2.6183434844585393e-10	3.902121206486472e-6
2.822099247474213e-10	4.137620214511621e-6
3.043839555809013e-10	4.387338740718483e-6
3.285532048494797e-10	4.6521343995383486e-6
3.5614793699984914e-10	4.93279147203444e-6
3.8637363711679556e-10	5.230381507322132e-6
4.195091200060549e-10	5.545926287640132e-6
4.5586494716326876e-10	5.880509272425541e-6
4.957871971600386e-10	6.235279323781515e-6
5.396616940654176e-10	6.6114546572819056e-6
5.879187501929365e-10	7.010327031780791e-6
6.410384864209389e-10	7.433266192728671e-6
6.995568011541046e-10	7.881724584382316e-6
7.640720677836266e-10	8.357242347235158e-6
8.352526503829178e-10	8.861452617993272e-6
9.114760998935725e-10	9.396090560250774e-6
9.864745657794756e-10	9.963002728147104e-6
1.068484792436314e-9	0.00001056412584379913
1.1582389287552203e-9	0.000011201525195351908
1.2565517159248796e-9	0.000011877390848969297
1.3643302456223371e-9	0.000012594045199712271
1.482584900441283e-9	0.000013353950980868159
1.6124416216503062e-9	0.000014159719759753036
1.7551556672955116e-9	0.00001501412094974564
1.912127043804569e-9	0.00001592009137015737
2.0849178168882674e-9	0.000016880745387507242
2.2752715329809076e-9	0.000017899385673860235
2.473107773403962e-9	0.00001897919170846321
2.673255744897465e-9	0.00002012368049919054
2.8918111347577163e-9	0.000021337157846936147
3.130671549779846e-9	0.000022623778983015466
3.391946906821114e-9	0.00002398794899781138
3.677984400344124e-9	0.000025434337813621105
3.9913964874583105e-9	0.000026967896048334585
4.335092260330103e-9	0.000028593871822142608
4.7123126214908734e-9	0.00003031782856243023
5.1266697288863075e-9	0.00003214566386512308
5.582191235183336e-9	0.00003408362947402687
6.083369910670025e-9	0.000036138352443140934
6.590429307039271e-9	0.0000383183882047753
7.117310893012801e-9	0.00004063089782814755
7.69204893669844e-9	0.00004308302970192498
8.319527982657456e-9	0.00004568322156752807
9.005175513810528e-9	0.000048440422047178954
9.755025562153873e-9	0.00005136412169607581
1.0575789992057846e-8	0.000054464385956806986
1.147493839567287e-8	0.0000577518901343651
1.2460787655889442e-8	0.0000612379565177105
1.354260236257728e-8	0.00006493459378193508
1.4730707414244294e-8	0.00006885453881373087
1.6036614301812413e-8	0.00007301130111211472
1.732345628699525e-8	0.00007741668787589679
1.869740658418485e-8	0.00008208744545355237
2.0195120766332672e-8	0.00008704004393643703
2.182914584265442e-8	0.00009229149520849792
2.3613417222340863e-8	0.00009785983862984477
2.55634209577603e-8	0.00010376420317339833
2.7696375530075117e-8	0.00011002487332913541
3.003143556860689e-8	0.00011666335900560106
3.258992019023231e-8	0.00012370246967250925
3.5395568976562816e-8	0.00013116639300329616
3.847482897918333e-8	0.00013908077829248325
4.1820459226816885e-8	0.00014747333281160826
4.4755171309069026e-8	0.0001563827227465875
4.7918114647718514e-8	0.00016583120142343259
5.1329420262160354e-8	0.00017585149232325295
5.5056745193776637e-8	0.00018647589741847934
5.944019790835873e-8	0.00019772447101763758
6.422009679019831e-8	0.00020965155029749525
6.943676531363793e-8	0.00022229805858718974
7.513499876705292e-8	0.00023570738701004563
8.136458747526688e-8	0.00024992554324249273
8.818090308735905e-8	0.00026500130923320854
9.564555564959453e-8	0.0002809864084213178
1.0365881799324261e-7	0.0002979367803213956
1.1189933213333397e-7	0.00031591316694963833
1.2088395481829683e-7	0.0003349744085686677
1.306882735796496e-7	0.0003551860032211161
1.413962513077745e-7	0.00037661740689864145
1.5310120572077558e-7	0.0003993422731506907
1.659069068601901e-7	0.0004234387072529172
1.7992880705909096e-7	0.00044898953582665855
1.949316056470516e-7	0.0004760827107193903
2.1074617361148245e-7	0.000504811477857267
2.2801878721363205e-7	0.0005352744569738926
2.469000483365937e-7	0.0005675764084846889
2.639519703341377e-7	0.0006018320710538346
2.777806103596558e-7	0.0006381608606372711
2.921831851226245e-7	0.0006766841029823509
3.071619686827047e-7	0.0007175345427798658
3.275877621522835e-7	0.0007608393284422256
3.5412778292739923e-7	0.0008067459159438975
3.8311129779955377e-7	0.0008554229646842393
4.1479041942437574e-7	0.0009070377472261465
4.482011583508979e-7	0.0009617639914915643
4.83772948196422e-7	0.0010197901448568978
5.225512977194551e-7	0.0010813177301420064
5.648614743155799e-7	0.0011465580985826037
6.110647522365918e-7	0.0012157353671597884
6.615626211728117e-7	0.0012890871906892705
7.168015018262185e-7	0.0013668655807354635
7.772780305168551e-7	0.0014493377742060957
8.396757020474718e-7	0.0015368461184799244
9.06290340876008e-7	0.0016296655154331998
9.789073139980568e-7	0.0017280978764109482
1.0581352764061707e-6	0.0018324835020537484
1.1446502451820427e-6	0.0019431834329964818
1.2392034719124083e-6	0.0020605807272924643
1.3426302633953434e-6	0.002185081818165872
1.45585986667871e-6	0.0023171179573444156
1.5715103573343994e-6	0.002456969478270521
1.6963105222805358e-6	0.0026052394412227745
1.8323677862579131e-6	0.0027624605193139608
1.9808246468065884e-6	0.0029291735314697174
2.1429501193254297e-6	0.0031059520266718877
2.3201545278305134e-6	0.0032934042714922135
2.5140060776883357e-6	0.0034921753591527164
2.7256383978407065e-6	0.00370294888854211
2.9109534412900564e-6	0.003926408330184661
3.1100442017053756e-6	0.004163357949863781
3.324064429255262e-6	0.004414612793647486
3.5571881308545406e-6	0.004680980463224591
3.842788826165181e-6	0.0049627537292882785
4.15444456967172e-6	0.005261449745525887
4.494824124594109e-6	0.005578080040068163
4.8646778883428955e-6	0.005914079121682179
5.255955958812639e-6	0.006272441507918335
5.6829953929271486e-6	0.006652620672097887
6.149464532645163e-6	0.007055957406350673
6.6546120797806815e-6	0.007483249546441796
7.188605631152057e-6	0.007934145990326472
7.771287379488493e-6	0.008412177145463062
8.407642095930422e-6	0.00891897177777196
9.095430071016845e-6	0.009456845146706794
9.826573273415011e-6	0.01002870468844242
0.000010624500660125815	0.010635233010739853
0.000011496059595301712	0.01127854282988996
0.00001239146836171491	0.011960251711939955
0.000013254499107565197	0.012682035983321514
0.000014183949787190607	0.013447397474947075
0.000015185611683986234	0.014258969436908296
0.00001630481246751333	0.015120031304615957
0.000017572923373801174	0.016033849342322007
0.000018952896297658425	0.01700300567100212
0.000020455874559124386	0.018030864989035066
0.000022088370834685048	0.019119745793807964
0.000023862570227772085	0.020273109125930344
0.000025798699010482248	0.02149604554787977
0.000027913349106323845	0.022792751665250632
0.000029946551257810932	0.024169492972499942
0.000031913803252319915	0.025631020237066184
0.00003401970721932653	0.027181150521142974
0.00003627511036768918	0.0288252831032083
0.00003899690291682342	0.030566230102689645
0.00004214033626356755	0.032410628029724727
0.00004557170311363934	0.03436635151432767
0.00004932059133390107	0.0364401240888088
0.00005330647135710753	0.03864167953547887
0.00005760633856372179	0.04097765147682162
0.00006230034384868167	0.043455153194683474
0.00006742901127347816	0.04608279867232139
0.00007286472286329429	0.04886397332747082
0.00007874349499857552	0.05181124711239377
0.00008516125064692312	0.054936261972484225
0.00009217341612423758	0.05824973365327021
0.00009958927531708777	0.06177555017364629
0.00010763265739607633	0.06551804815866813
0.00011641426675303812	0.06948828970443892
0.00012601008317816205	0.07370025936663145
0.0001342724585323194	0.07814397432095295
0.00014288460013669514	0.08285291098516735
0.00015207992932898655	0.08784528399170846
0.00016190153940440032	0.09313811351102806
0.00017218618397070432	0.098785256236644
0.00018303509966697689	0.10476879006885989
0.00019418557495252053	0.11108616159292879
0.00020620123806793747	0.1177853823250378
0.000222718471809836	0.12491141874083828
0.00024073897687163444	0.1324699029084871
0.00026041643605451506	0.14048724191944822
0.00028145829501578795	0.1489901978776733
0.00030075443960123603	0.15799944641569816
0.00032150263084408534	0.16755484599058154
0.0003438262597884204	0.17768967517099152
0.000367674708470857	0.18843816817786962
0.0003924992954532718	0.19983373059058734
0.00041915013234375864	0.21192022232063332
0.00044777824271482574	0.22473975819059613
0.00048005841855643723	0.23828532281099454
0.0005094930808273768	0.2526323851046195
0.0005382003121465334	0.26787893807952134
0.0005683872831720789	0.284046058843484
0.0006001119371590247	0.3011893831676003
0.0006334318199324272	0.3193679158330156
0.0006684035720836024	0.33864423545755457
0.0007050823303994406	0.3590847118764141
0.0007435210255754625	0.38075973685885267
0.0007837695615531735	0.40374396899303133
0.0008258738598935967	0.428116593624809
0.0008698747504240129	0.45396159879358416
0.000915806686942979	0.4813680681695235
0.000963696264004745	0.5104304920619944
0.001013560507689028	0.5412490976390352
0.001065404909751646	0.5739301995726525
0.0011192211705961185	0.6085865724049502
0.001174984612050188	0.6453378460160324
0.0012326512159115154	0.6843109256666994
0.001292154238572954	0.7256404381876953
0.0013534003456703136	0.7694692059931719
0.0014162652035251023	0.8159487507097182
0.0014805884560808369	0.8652398283343982
0.0015461680069411335	0.9175129979664343
0.0016127535158838172	0.9729492262982481
0.0016800390077047174	1.0317405302033642
0.0017476544782769224	1.0940906599220972
0.0018151563681151526	1.1602158255220163
0.0018820167573072783	1.2303454694999936
0.001947611117187161	1.3047230885974421
0.0020112044333177093	1.3836071081214507
0.0020719354909411996	1.4672718123034199
0.0021287990877101874	1.556008334485099
0.0021806259088711036	1.650125711201472
0.0022260597667225824	1.7499520045326067
0.00226353186864925	1.855835497424695
0.0024135910814922254	1.9679571168119536
0.002608347201399287	2.086811055034228
0.0028209615697581372	2.2128519613691715
0.0030532708357966783	2.3465155207191413
0.0033073168227470305	2.4882639658551726
0.003585370635020542	2.6385877118942975
0.0038899596775498592	2.798007093476498
0.00422016076675003	2.967028047500233
0.004581573430734953	3.1462668529643434
0.004978066257512542	3.336349793976476
0.005413405749111262	3.5379349726981904
0.005891790733020767	3.7517206801879417
0.0064090560054966975	3.9783961770264478
0.006977277207058799	4.218787781180878
0.007602346512625206	4.473730258576255
0.008288323964627187	4.7440995042387355
0.009030918080626548	5.030792031313746
0.00984846168906879	5.33484222374686
0.010748997441838768	5.657302766062204
0.011736247311543914	5.999238361773806
0.012825163988239033	6.361883351362904
0.014011433866421799	6.74647328624051
0.015295896607214724	7.154326803385345
0.016710397433564252	7.586884971478242
0.018256489106177897	8.045601244156966
0.01995934876103551	8.532111325923523
0.021812544031754658	9.048053971552763
0.023846427811811344	9.595254085690293
0.026064984560852992	10.175585441707051
0.028499124771983096	10.791061220550635
0.031163507388272216	11.443829366355281
0.034038039323478354	12.13613617170649
0.03719628753342594	12.870381681218207
0.040643542564293075	13.64912407940893
0.04438622267156712	14.475062218795914
0.048448376372209945	15.351060098607492
0.052878596360707165	16.280156864438663
0.05767635712335342	17.265577341264688
0.0628459325347504	18.31074284309572
0.06846511472321826	19.41928342620497
0.07449845863367265	20.595051193784563
0.08096423875542498	21.842120546859697
0.08791139084256756	23.164816572526775
0.09531046219784532	24.567755768398168
0.10316703700123693	26.05577298144548
0.11156331734712865	27.63406429367505
0.12045683852549731	29.30809687506636
0.18633292641770233	67.57111878060356
0.2583668273514009	75.03578025937685
0.3416801683685557	82.50813142884978
0.43735001641953797	89.98854421231965
0.5464746625568846	97.477419038044
0.6701794585688476	104.97518011100594
0.8096238748549349	112.48227249613201
0.9660092546169187	119.99916047418512
1.1405866772376898	127.52632679852287
1.3346643385045205	135.06427257732068
1.5496138550480938	142.61351756481812
1.7868748881176706	150.1746006819812
2.0479574611179006	157.74808061015526
2.334441331691236	165.33453631574505
2.647971794931463	172.93456737383295
2.9902513655301504	180.54879396724888
3.3630269384297997	188.17785644826864
3.7680722783833973	195.8224143657321
4.207166042874315	203.4831448834497
4.682065982114323	211.1607405475401
5.194480438947714	218.85590640083322
5.746038718878691	226.56935648927674
6.338262228841486	234.30180985449445
6.972538409524689	242.05398615221827
7.65009935551485	249.8266010720447
8.372006625318585	257.62036175417984
9.139143142435625	265.4359624001442
9.952212379921884	273.2740802565246
10.81174432713339	281.13537211666113
11.718107170941035	289.02047144021583
12.671523259236805	296.929986141527
13.67208777613059	304.8644970508917
14.719788623001813	312.82455701354866
15.814526213236839	320.81069056191245
16.95613218493377	328.82339407850765
18.144386354082627	336.86313635905356
19.379031524992513	344.9303594855543
20.659786017820714	353.02547992546994
21.986353954426754	361.1488897830705
23.358433464943516	369.30095814068164
23.359734954610058	377.9473802377247
36.373330130350176	405.28385716569505
49.388226795756836	432.6203340936653
62.40312346116349	459.9568110216356
75.41802012657014	487.29328794960594
88.43291679197681	514.6297648775762
101.44781345738346	541.9662418055465
114.46271012279013	569.3027187335169
127.47760678819678	596.6391956614872
140.49250345360343	623.9756725894574
153.50740011901007	651.3121495174277
166.52229678441674	678.648626445398
179.5371934498234	705.9851033733684
192.55209011523004	733.3215803013387
205.5669867806367	760.658057229309
218.58188344604338	787.9945341572792
231.59678011145002	815.3310110852495
244.61167677685668	842.6674880132199
257.62657344226335	870.0039649411901
270.64147010767	897.3404418691605
283.6563667730767	924.6769187971307
296.6712634384833	952.013395725101
309.68616010388996	979.3498726530714
322.70105676929666	1006.6863495810417
335.7159534347033	1034.0228265090118
348.73085010010993	1061.3593034369824
361.7457467655166	1088.6957803649525
374.76064343092327	1116.0322572929228
387.7755400963299	1143.3687342208932
400.7904367617366	1170.7052111488633
413.80533342714324	1198.041688076834
426.8202300925499	1225.378165004804
439.8351267579566	1252.7146419327742
452.8500234233632	1280.0511188607447
465.86492008876985	1307.387595788715
478.87981675417655	1334.7240727166852
491.8947134195832	1362.0605496446558
504.9096100849898	1389.397026572626
517.9245067503965	1416.733503500596
530.9394034158032	1444.0699804285666
543.9543000812098	1471.4064573565367
556.9691967466165	1498.742934284507
569.9840934120232	1526.0794112124772
582.9989900774298	1553.4158881404476
596.0138867428365	1580.7523650684182
609.0287834082432	1608.0888419963883
622.0436800736497	1635.4253189243586
635.0585767390564	1662.761795852329
648.0734734044631	1690.098272780299
661.0883700698697	1717.4347497082695
674.1032667352764	1744.7712266362398
687.1181634006831	1772.10770356421
700.1330600660897	1799.4441804921803
713.1479567314964	1826.7806574201509
726.1628533969031	1854.117134348121
739.1777500623097	1881.4536112760914
752.1926467277164	1908.7900882040617
765.207543393123	1936.1265651320318
778.2224400585296	1963.4630420600022
791.2373367239363	1990.7995189879725
804.252233389343	2018.1359959159429
817.2671300547496	2045.472472843913
830.2820267201563	2072.8089497718834
843.296923385563	2100.145426699854
856.3118200509696	2127.481903627824
869.3267167163763	2154.818380555794
882.341613381783	2182.1548574837648
895.3565100471895	2209.491334411735
908.3714067125962	2236.827811339705
921.3863033780029	2264.1642882676756
934.4012000434095	2291.5007651956457
947.4160967088162	2318.837242123616
960.4309933742229	2346.1737190515864
973.4458900396295	2373.5101959795566
986.4607867050362	2400.8466729075267
999.4756833704429	2428.1831498354973
1012.4905800358495	2455.5196267634674
1025.5054767012562	2482.8561036914375
1038.5203733666629	2510.1925806194085
